…
``` r
#-------------TESTING-------------
# Starting 12,119 rows
# Filter injury data to include only notes that contain "Placed on IR"
filtered_injurydata <- subset(filtered_injurydata, grepl("placed on IL", Notes))
filtered_injurydata
```

    ## # A tibble: 12,106 × 5
    ##     ...1 Date       Team      Relinquished        Notes                         
    ##    <dbl> <date>     <chr>     <chr>               <chr>                         
    ##  1 14669 2010-01-01 Knicks    Jonathan Bender     placed on IL with sore left l…
    ##  2 14671 2010-01-02 Celtics   Kevin Garnett       placed on IL with hyperextend…
    ##  3 14673 2010-01-02 Nets      Sean Williams       placed on IL                  
    ##  4 14675 2010-01-02 Wizards   Mike James (Lamont) placed on IL                  
    ##  5 14677 2010-01-04 Blazers   Joel Przybilla      placed on IL recovering from …
    ##  6 14678 2010-01-04 Clippers  Brian Skinner       placed on IL                  
    ##  7 14680 2010-01-04 Heat      Jermaine O'Neal     placed on IL with strained gr…
    ##  8 14683 2010-01-05 76ers     Royal Ivey          placed on IL                  
    ##  9 14685 2010-01-05 Knicks    Eddy Curry          placed on IL                  
    ## 10 14687 2010-01-05 Mavericks Erick Dampier       placed on IL with left knee e…
    ## # ℹ 12,096 more rows
…
